player;nature;nbGamePlayed;nbGameWon;avgScore;avgRoundPlayed;AvgRoundWon
Squall;humain;1;0;8.0;23.0;0.7391304347826086
Wedge;AI_TAF_V1_seuilMaxS_0.3_seuilMinS_0.5_seuilMinA_0.8;1;0;0.0;23.0;0.43478260869565216
Biggs;AI_TAF_V1_seuilMaxS_0.3_seuilMinS_0.5_seuilMinA_0.8;1;0;2.0;23.0;0.5217391304347826
Cid;AI_TAF_V1_seuilMaxS_0.3_seuilMinS_0.5_seuilMinA_0.8;1;1;10.0;23.0;0.8260869565217391
