player;nature;nbGamePlayed;nbGameWon;avgScore;avgRoundPlayed;AvgRoundWon
Squall;AI_TAF_V1_seuilMaxS_0.3_seuilMinS_0.5_seuilMinA_0.8;22;6;3.3636363636363638;23.136363636363637;0.587426326129666
Wedge;AI_TAF_V1_seuilMaxS_0.3_seuilMinS_0.5_seuilMinA_0.85;22;3;1.9545454545454546;23.136363636363637;0.5402750491159135
Biggs;AI_TAF_V1_seuilMaxS_0.35_seuilMinS_0.5_seuilMinA_0.8;22;9;3.5454545454545454;23.136363636363637;0.587426326129666
Cid;AI_TAF_V1_seuilMaxS_0.3_seuilMinS_0.55_seuilMinA_0.8;22;5;2.909090909090909;23.136363636363637;0.5658153241650294
